…
Make a non-tidy matrix of that data where each row is an airport and
each column is a day of the year.

    data_for_change <- weather %>% mutate(day_of_year = yday(time_hour))%>%
      group_by(origin, day_of_year)%>%
      summarise(mean_tem_day = mean(temp, na.rm = T))
    library(tidyr)

    data_for_change %>% 
      pivot_wider( names_from = "origin", values_from = "mean_tem_day")

    ## # A tibble: 364 x 4
    ##    day_of_year   EWR   JFK   LGA
    ##          <dbl> <dbl> <dbl> <dbl>
    ##  1           1  36.8  36.9  37.2
    ##  2           2  28.7  28.6  28.8
    ##  3           3  29.6  30.1  30.3
    ##  4           4  34.3  34.7  35.8
    ##  5           5  36.6  36.8  38.3
    ##  6           6  39.9  39.3  41.0
    ##  7           7  40.3  40.1  41.4
    ##  8           8  38.6  39.4  42.3
    ##  9           9  42.1  42.7  44.9
    ## 10          10  43.6  43.6  44.3
    ## # ... with 354 more rows
…
    EWR <- weather %>% mutate(day_of_year = yday(time_hour))%>%
      group_by(origin, day_of_year)%>%
      summarise(mean_tem_day = mean(temp, na.rm = T))%>%
      filter(origin == "EWR")

    EWR %>% pivot_wider( names_from = "origin", values_from = "mean_tem_day")

    ## # A tibble: 364 x 2
    ##    day_of_year   EWR
    ##          <int> <dbl>
    ##  1           1  36.8
    ##  2           2  28.7
    ##  3           3  29.6
    ##  4           4  34.3
    ##  5           5  36.6
    ##  6           6  39.9
    ##  7           7  40.3
    ##  8           8  38.6
    ##  9           9  42.1
    ## 10          10  43.6
    ## # ... with 354 more rows
…
